{
	"info": {
		"_postman_id": "7bc51fbf-88f4-4ba6-8363-1e5c9b2ae43e",
		"name": "Logique",
		"schema": "https://schema.getpostman.com/json/collection/v2.1.0/collection.json"
	},
	"item": [
		{
			"name": "Create User",
			"request": {
				"method": "POST",
				"header": [
					{
						"key": "key",
						"value": "HiJhvL$T27@1u^%u86g",
						"type": "text"
					}
				],
				"body": {
					"mode": "formdata",
					"formdata": [
						{
							"key": "name",
							"value": "fikri",
							"type": "text"
						},
						{
							"key": "address",
							"value": "bekasi",
							"type": "text"
						},
						{
							"key": "email",
							"value": "fikriakhdi22@gmail.com",
							"type": "text"
						},
						{
							"key": "password",
							"value": "password123",
							"type": "text"
						},
						{
							"key": "creditcard_type",
							"value": "visa",
							"type": "text"
						},
						{
							"key": "creditcard_number",
							"value": "4661661029382127",
							"type": "text"
						},
						{
							"key": "creditcard_expired",
							"value": "12/2021",
							"type": "text"
						},
						{
							"key": "creditcard_cvv",
							"value": "322",
							"type": "text"
						},
						{
							"key": "photos",
							"type": "file",
							"src": [
								"/Users/fikriakhdimaulana/2.2.jpg",
								"/Users/fikriakhdimaulana/3.3.jpg"
							]
						}
					]
				},
				"url": {
					"raw": "http://localhost:6666/user/register",
					"protocol": "http",
					"host": [
						"localhost"
					],
					"port": "6666",
					"path": [
						"user",
						"register"
					]
				}
			},
			"response": []
		},
		{
			"name": "List User",
			"request": {
				"method": "GET",
				"header": [
					{
						"key": "key",
						"value": "HiJhvL$T27@1u^%u86g",
						"type": "text"
					},
					{
						"key": "q",
						"value": "name,email,_id",
						"type": "text"
					}
				],
				"url": {
					"raw": "http://localhost:6666/user/list",
					"protocol": "http",
					"host": [
						"localhost"
					],
					"port": "6666",
					"path": [
						"user",
						"list"
					]
				}
			},
			"response": []
		},
		{
			"name": "Get User",
			"request": {
				"method": "GET",
				"header": [
					{
						"key": "key",
						"value": "HiJhvL$T27@1u^%u86g",
						"type": "text"
					}
				],
				"url": {
					"raw": "http://localhost:6666/user/61af7aae253fba9fd1cac068",
					"protocol": "http",
					"host": [
						"localhost"
					],
					"port": "6666",
					"path": [
						"user",
						"61af7aae253fba9fd1cac068"
					]
				}
			},
			"response": []
		},
		{
			"name": "Update",
			"request": {
				"method": "PATCH",
				"header": [
					{
						"key": "key",
						"value": "HiJhvL$T27@1u^%u86g",
						"type": "text"
					}
				],
				"body": {
					"mode": "urlencoded",
					"urlencoded": [
						{
							"key": "user_id",
							"value": "61af7aae253fba9fd1cac068",
							"type": "text"
						},
						{
							"key": "name",
							"value": "fikri",
							"type": "text"
						},
						{
							"key": "address",
							"value": "bekasi",
							"type": "text"
						},
						{
							"key": "email",
							"value": "fikriakhdi22@gmail.com",
							"type": "text"
						},
						{
							"key": "password",
							"value": "password123",
							"type": "text"
						},
						{
							"key": "creditcard_type",
							"value": "visa",
							"type": "text"
						},
						{
							"key": "creditcard_number",
							"value": "4661661029382127",
							"type": "text"
						},
						{
							"key": "creditcard_expired",
							"value": "12/2021",
							"type": "text"
						},
						{
							"key": "creditcard_cvv",
							"value": "322",
							"type": "text"
						}
					]
				},
				"url": {
					"raw": "http://localhost:6666/user",
					"protocol": "http",
					"host": [
						"localhost"
					],
					"port": "6666",
					"path": [
						"user"
					]
				}
			},
			"response": []
		}
	]
}